\relax 
\providecommand*{\memsetcounter}[2]{}
\catcode `"\active 
\select@language{swedish}
\@writefile{toc}{\select@language{swedish}}
\@writefile{lof}{\select@language{swedish}}
\@writefile{lot}{\select@language{swedish}}
\@writefile{toc}{\contentsline {section}{\numberline {1}Inledning}{1}}
\@writefile{toc}{\contentsline {section}{\numberline {2}Metod}{1}}
\newlabel{eq:iter}{{\M@TitleReference {1}{Metod}}{1}}
\@writefile{toc}{\contentsline {subsection}{Analys}{1}}
\@writefile{lof}{\contentsline {figure}{\numberline {1}{\ignorespaces  Matlab-funktion f\IeC {\"o}r att hitta nollst\IeC {\"a}llen med sekantmetoden. }}{2}}
\newlabel{fig:code}{{\M@TitleReference {1}{ Matlab-funktion f\IeC {\"o}r att hitta nollst\IeC {\"a}llen med sekantmetoden. }}{2}}
\@writefile{lof}{\contentsline {figure}{\numberline {2}{\ignorespaces  Matlab-funktion f\IeC {\"o}r att hitta nollst\IeC {\"a}llen med sekantmetoden. Denna version returnerar samtliga bes\IeC {\"o}kta punkter $x_i$, men \IeC {\"a}r i \IeC {\"o}vrigt identisk. }}{2}}
\newlabel{fig:modded}{{\M@TitleReference {2}{ Matlab-funktion f\IeC {\"o}r att hitta nollst\IeC {\"a}llen med sekantmetoden. Denna version returnerar samtliga bes\IeC {\"o}kta punkter $x_i$, men \IeC {\"a}r i \IeC {\"o}vrigt identisk. }}{2}}
\@writefile{toc}{\contentsline {subsection}{Insamling av data}{2}}
\@writefile{toc}{\contentsline {section}{\numberline {3}Resultat}{2}}
\@writefile{toc}{\contentsline {subsection}{Kod}{2}}
\@writefile{lof}{\contentsline {figure}{\numberline {3}{\ignorespaces  Best\IeC {\"a}mning av $p$ f\IeC {\"o}r $f_1(x)$}}{3}}
\newlabel{fig:f1}{{\M@TitleReference {3}{ Best\IeC {\"a}mning av $p$ f\IeC {\"o}r $f_1(x)$}}{3}}
\@writefile{lof}{\contentsline {figure}{\numberline {4}{\ignorespaces  Best\IeC {\"a}mning av $p$ f\IeC {\"o}r $f_2(x)$}}{3}}
\newlabel{fig:f2}{{\M@TitleReference {4}{ Best\IeC {\"a}mning av $p$ f\IeC {\"o}r $f_2(x)$}}{3}}
\@writefile{toc}{\contentsline {subsection}{Analys}{3}}
\@writefile{toc}{\contentsline {section}{\numberline {4}Diskussion}{3}}
\@writefile{lof}{\contentsline {figure}{\numberline {5}{\ignorespaces  Best\IeC {\"a}mning av $p$ f\IeC {\"o}r $f_3(x)$}}{4}}
\newlabel{fig:f3}{{\M@TitleReference {5}{ Best\IeC {\"a}mning av $p$ f\IeC {\"o}r $f_3(x)$}}{4}}
\@writefile{lof}{\contentsline {figure}{\numberline {6}{\ignorespaces  Best\IeC {\"a}mning av $p$ f\IeC {\"o}r $f_4(x)$}}{4}}
\newlabel{fig:f4}{{\M@TitleReference {6}{ Best\IeC {\"a}mning av $p$ f\IeC {\"o}r $f_4(x)$}}{4}}
\memsetcounter{lastsheet}{5}
\memsetcounter{lastpage}{4}
